^C:\GAMEPIRES\BRAKEOUTGAME\BREAKEOUT.CPP
/c /Z7 /nologo /W3 /WX- /diagnostics:column /Od /D _DEBUG /D _CONSOLE /D _UNICODE /D UNICODE /EHsc /MDd /GS /fp:precise /permissive- /std:c++17 /Fo"X64\DEBUG\\" /Gd /TP -m64   C:\GAMEPIRES\BRAKEOUTGAME\BREAKEOUT.CPP
^C:\GAMEPIRES\BRAKEOUTGAME\CONFIGURATION.CPP
/c /Z7 /nologo /W3 /WX- /diagnostics:column /Od /D _DEBUG /D _CONSOLE /D _UNICODE /D UNICODE /EHsc /MDd /GS /fp:precise /permissive- /std:c++17 /Fo"X64\DEBUG\\" /Gd /TP -m64   C:\GAMEPIRES\BRAKEOUTGAME\CONFIGURATION.CPP
^C:\GAMEPIRES\BRAKEOUTGAME\CONTROLLER\CONTROLLER.CPP
/c /Z7 /nologo /W3 /WX- /diagnostics:column /Od /D _DEBUG /D _CONSOLE /D _UNICODE /D UNICODE /EHsc /MDd /GS /fp:precise /permissive- /std:c++17 /Fo"X64\DEBUG\\" /Gd /TP -m64   C:\GAMEPIRES\BRAKEOUTGAME\CONTROLLER\CONTROLLER.CPP
^C:\GAMEPIRES\BRAKEOUTGAME\CONTROLLER\STATES\GAMESTATE.CPP
/c /Z7 /nologo /W3 /WX- /diagnostics:column /Od /D _DEBUG /D _CONSOLE /D _UNICODE /D UNICODE /EHsc /MDd /GS /fp:precise /permissive- /std:c++17 /Fo"X64\DEBUG\\" /Gd /TP -m64   C:\GAMEPIRES\BRAKEOUTGAME\CONTROLLER\STATES\GAMESTATE.CPP
^C:\GAMEPIRES\BRAKEOUTGAME\CONTROLLER\STATES\MAINMENUSTATE.CPP
/c /Z7 /nologo /W3 /WX- /diagnostics:column /Od /D _DEBUG /D _CONSOLE /D _UNICODE /D UNICODE /EHsc /MDd /GS /fp:precise /permissive- /std:c++17 /Fo"X64\DEBUG\\" /Gd /TP -m64   C:\GAMEPIRES\BRAKEOUTGAME\CONTROLLER\STATES\MAINMENUSTATE.CPP
^C:\GAMEPIRES\BRAKEOUTGAME\CONTROLLER\STATES\STATE.CPP
/c /Z7 /nologo /W3 /WX- /diagnostics:column /Od /D _DEBUG /D _CONSOLE /D _UNICODE /D UNICODE /EHsc /MDd /GS /fp:precise /permissive- /std:c++17 /Fo"X64\DEBUG\\" /Gd /TP -m64   C:\GAMEPIRES\BRAKEOUTGAME\CONTROLLER\STATES\STATE.CPP
^C:\GAMEPIRES\BRAKEOUTGAME\CONTROLLER\STATES\VICTORYSTATE.CPP
/c /Z7 /nologo /W3 /WX- /diagnostics:column /Od /D _DEBUG /D _CONSOLE /D _UNICODE /D UNICODE /EHsc /MDd /GS /fp:precise /permissive- /std:c++17 /Fo"X64\DEBUG\\" /Gd /TP -m64   C:\GAMEPIRES\BRAKEOUTGAME\CONTROLLER\STATES\VICTORYSTATE.CPP
^C:\GAMEPIRES\BRAKEOUTGAME\MODEL\COLLISIONABLE.CPP
/c /Z7 /nologo /W3 /WX- /diagnostics:column /Od /D _DEBUG /D _CONSOLE /D _UNICODE /D UNICODE /EHsc /MDd /GS /fp:precise /permissive- /std:c++17 /Fo"X64\DEBUG\\" /Gd /TP -m64   C:\GAMEPIRES\BRAKEOUTGAME\MODEL\COLLISIONABLE.CPP
^C:\GAMEPIRES\BRAKEOUTGAME\MODEL\DRAWABLE.CPP
/c /Z7 /nologo /W3 /WX- /diagnostics:column /Od /D _DEBUG /D _CONSOLE /D _UNICODE /D UNICODE /EHsc /MDd /GS /fp:precise /permissive- /std:c++17 /Fo"X64\DEBUG\\" /Gd /TP -m64   C:\GAMEPIRES\BRAKEOUTGAME\MODEL\DRAWABLE.CPP
^C:\GAMEPIRES\BRAKEOUTGAME\MODEL\ELEMENTS\BACKGROUND.CPP
/c /Z7 /nologo /W3 /WX- /diagnostics:column /Od /D _DEBUG /D _CONSOLE /D _UNICODE /D UNICODE /EHsc /MDd /GS /fp:precise /permissive- /std:c++17 /Fo"X64\DEBUG\\" /Gd /TP -m64   C:\GAMEPIRES\BRAKEOUTGAME\MODEL\ELEMENTS\BACKGROUND.CPP
^C:\GAMEPIRES\BRAKEOUTGAME\MODEL\ELEMENTS\BALL.CPP
/c /Z7 /nologo /W3 /WX- /diagnostics:column /Od /D _DEBUG /D _CONSOLE /D _UNICODE /D UNICODE /EHsc /MDd /GS /fp:precise /permissive- /std:c++17 /Fo"X64\DEBUG\\" /Gd /TP -m64   C:\GAMEPIRES\BRAKEOUTGAME\MODEL\ELEMENTS\BALL.CPP
^C:\GAMEPIRES\BRAKEOUTGAME\MODEL\ELEMENTS\BRICK.CPP
/c /Z7 /nologo /W3 /WX- /diagnostics:column /Od /D _DEBUG /D _CONSOLE /D _UNICODE /D UNICODE /EHsc /MDd /GS /fp:precise /permissive- /std:c++17 /Fo"X64\DEBUG\\" /Gd /TP -m64   C:\GAMEPIRES\BRAKEOUTGAME\MODEL\ELEMENTS\BRICK.CPP
^C:\GAMEPIRES\BRAKEOUTGAME\MODEL\ELEMENTS\BUTTON.CPP
/c /Z7 /nologo /W3 /WX- /diagnostics:column /Od /D _DEBUG /D _CONSOLE /D _UNICODE /D UNICODE /EHsc /MDd /GS /fp:precise /permissive- /std:c++17 /Fo"X64\DEBUG\\" /Gd /TP -m64   C:\GAMEPIRES\BRAKEOUTGAME\MODEL\ELEMENTS\BUTTON.CPP
^C:\GAMEPIRES\BRAKEOUTGAME\MODEL\ELEMENTS\EDGE.CPP
/c /Z7 /nologo /W3 /WX- /diagnostics:column /Od /D _DEBUG /D _CONSOLE /D _UNICODE /D UNICODE /EHsc /MDd /GS /fp:precise /permissive- /std:c++17 /Fo"X64\DEBUG\\" /Gd /TP -m64   C:\GAMEPIRES\BRAKEOUTGAME\MODEL\ELEMENTS\EDGE.CPP
^C:\GAMEPIRES\BRAKEOUTGAME\MODEL\ELEMENTS\PLAYER.CPP
/c /Z7 /nologo /W3 /WX- /diagnostics:column /Od /D _DEBUG /D _CONSOLE /D _UNICODE /D UNICODE /EHsc /MDd /GS /fp:precise /permissive- /std:c++17 /Fo"X64\DEBUG\\" /Gd /TP -m64   C:\GAMEPIRES\BRAKEOUTGAME\MODEL\ELEMENTS\PLAYER.CPP
^C:\GAMEPIRES\BRAKEOUTGAME\MODEL\ELEMENTS\TEXT.CPP
/c /Z7 /nologo /W3 /WX- /diagnostics:column /Od /D _DEBUG /D _CONSOLE /D _UNICODE /D UNICODE /EHsc /MDd /GS /fp:precise /permissive- /std:c++17 /Fo"X64\DEBUG\\" /Gd /TP -m64   C:\GAMEPIRES\BRAKEOUTGAME\MODEL\ELEMENTS\TEXT.CPP
^C:\GAMEPIRES\BRAKEOUTGAME\MODEL\ELEMENTS\WALL.CPP
/c /Z7 /nologo /W3 /WX- /diagnostics:column /Od /D _DEBUG /D _CONSOLE /D _UNICODE /D UNICODE /EHsc /MDd /GS /fp:precise /permissive- /std:c++17 /Fo"X64\DEBUG\\" /Gd /TP -m64   C:\GAMEPIRES\BRAKEOUTGAME\MODEL\ELEMENTS\WALL.CPP
^C:\GAMEPIRES\BRAKEOUTGAME\MODEL\MODEL.CPP
/c /Z7 /nologo /W3 /WX- /diagnostics:column /Od /D _DEBUG /D _CONSOLE /D _UNICODE /D UNICODE /EHsc /MDd /GS /fp:precise /permissive- /std:c++17 /Fo"X64\DEBUG\\" /Gd /TP -m64   C:\GAMEPIRES\BRAKEOUTGAME\MODEL\MODEL.CPP
^C:\GAMEPIRES\BRAKEOUTGAME\MODEL\SCENES\GAMESCENE.CPP
/c /Z7 /nologo /W3 /WX- /diagnostics:column /Od /D _DEBUG /D _CONSOLE /D _UNICODE /D UNICODE /EHsc /MDd /GS /fp:precise /permissive- /std:c++17 /Fo"X64\DEBUG\\" /Gd /TP -m64   C:\GAMEPIRES\BRAKEOUTGAME\MODEL\SCENES\GAMESCENE.CPP
^C:\GAMEPIRES\BRAKEOUTGAME\MODEL\SCENES\MAINMENU.CPP
/c /Z7 /nologo /W3 /WX- /diagnostics:column /Od /D _DEBUG /D _CONSOLE /D _UNICODE /D UNICODE /EHsc /MDd /GS /fp:precise /permissive- /std:c++17 /Fo"X64\DEBUG\\" /Gd /TP -m64   C:\GAMEPIRES\BRAKEOUTGAME\MODEL\SCENES\MAINMENU.CPP
^C:\GAMEPIRES\BRAKEOUTGAME\MODEL\SCENES\VICTORYMENU.CPP
/c /Z7 /nologo /W3 /WX- /diagnostics:column /Od /D _DEBUG /D _CONSOLE /D _UNICODE /D UNICODE /EHsc /MDd /GS /fp:precise /permissive- /std:c++17 /Fo"X64\DEBUG\\" /Gd /TP -m64   C:\GAMEPIRES\BRAKEOUTGAME\MODEL\SCENES\VICTORYMENU.CPP
^C:\GAMEPIRES\BRAKEOUTGAME\MODEL\SOUND\SOUND.CPP
/c /Z7 /nologo /W3 /WX- /diagnostics:column /Od /D _DEBUG /D _CONSOLE /D _UNICODE /D UNICODE /EHsc /MDd /GS /fp:precise /permissive- /std:c++17 /Fo"X64\DEBUG\\" /Gd /TP -m64   C:\GAMEPIRES\BRAKEOUTGAME\MODEL\SOUND\SOUND.CPP
^C:\GAMEPIRES\BRAKEOUTGAME\MODEL\SOUND\SOUNDMANAGER.CPP
/c /Z7 /nologo /W3 /WX- /diagnostics:column /Od /D _DEBUG /D _CONSOLE /D _UNICODE /D UNICODE /EHsc /MDd /GS /fp:precise /permissive- /std:c++17 /Fo"X64\DEBUG\\" /Gd /TP -m64   C:\GAMEPIRES\BRAKEOUTGAME\MODEL\SOUND\SOUNDMANAGER.CPP
^C:\GAMEPIRES\BRAKEOUTGAME\MODEL\TEXTURE\TEXTURE.CPP
/c /Z7 /nologo /W3 /WX- /diagnostics:column /Od /D _DEBUG /D _CONSOLE /D _UNICODE /D UNICODE /EHsc /MDd /GS /fp:precise /permissive- /std:c++17 /Fo"X64\DEBUG\\" /Gd /TP -m64   C:\GAMEPIRES\BRAKEOUTGAME\MODEL\TEXTURE\TEXTURE.CPP
^C:\GAMEPIRES\BRAKEOUTGAME\MODEL\TEXTURE\TEXTUREMANAGER.CPP
/c /Z7 /nologo /W3 /WX- /diagnostics:column /Od /D _DEBUG /D _CONSOLE /D _UNICODE /D UNICODE /EHsc /MDd /GS /fp:precise /permissive- /std:c++17 /Fo"X64\DEBUG\\" /Gd /TP -m64   C:\GAMEPIRES\BRAKEOUTGAME\MODEL\TEXTURE\TEXTUREMANAGER.CPP
^C:\GAMEPIRES\BRAKEOUTGAME\MODEL\UPDATABLE.CPP
/c /Z7 /nologo /W3 /WX- /diagnostics:column /Od /D _DEBUG /D _CONSOLE /D _UNICODE /D UNICODE /EHsc /MDd /GS /fp:precise /permissive- /std:c++17 /Fo"X64\DEBUG\\" /Gd /TP -m64   C:\GAMEPIRES\BRAKEOUTGAME\MODEL\UPDATABLE.CPP
^C:\GAMEPIRES\BRAKEOUTGAME\MODEL\XMLPARSER.CPP
/c /Z7 /nologo /W3 /WX- /diagnostics:column /Od /D _DEBUG /D _CONSOLE /D _UNICODE /D UNICODE /EHsc /MDd /GS /fp:precise /permissive- /std:c++17 /Fo"X64\DEBUG\\" /Gd /TP -m64   C:\GAMEPIRES\BRAKEOUTGAME\MODEL\XMLPARSER.CPP
^C:\GAMEPIRES\BRAKEOUTGAME\TIMER.CPP
/c /Z7 /nologo /W3 /WX- /diagnostics:column /Od /D _DEBUG /D _CONSOLE /D _UNICODE /D UNICODE /EHsc /MDd /GS /fp:precise /permissive- /std:c++17 /Fo"X64\DEBUG\\" /Gd /TP -m64   C:\GAMEPIRES\BRAKEOUTGAME\TIMER.CPP
^C:\GAMEPIRES\BRAKEOUTGAME\TINYSTR.CPP
/c /Z7 /nologo /W3 /WX- /diagnostics:column /Od /D _DEBUG /D _CONSOLE /D _UNICODE /D UNICODE /EHsc /MDd /GS /fp:precise /permissive- /std:c++17 /Fo"X64\DEBUG\\" /Gd /TP -m64   C:\GAMEPIRES\BRAKEOUTGAME\TINYSTR.CPP
^C:\GAMEPIRES\BRAKEOUTGAME\TINYXML.CPP
/c /Z7 /nologo /W3 /WX- /diagnostics:column /Od /D _DEBUG /D _CONSOLE /D _UNICODE /D UNICODE /EHsc /MDd /GS /fp:precise /permissive- /std:c++17 /Fo"X64\DEBUG\\" /Gd /TP -m64   C:\GAMEPIRES\BRAKEOUTGAME\TINYXML.CPP
^C:\GAMEPIRES\BRAKEOUTGAME\TINYXMLERROR.CPP
/c /Z7 /nologo /W3 /WX- /diagnostics:column /Od /D _DEBUG /D _CONSOLE /D _UNICODE /D UNICODE /EHsc /MDd /GS /fp:precise /permissive- /std:c++17 /Fo"X64\DEBUG\\" /Gd /TP -m64   C:\GAMEPIRES\BRAKEOUTGAME\TINYXMLERROR.CPP
^C:\GAMEPIRES\BRAKEOUTGAME\TINYXMLPARSER.CPP
/c /Z7 /nologo /W3 /WX- /diagnostics:column /Od /D _DEBUG /D _CONSOLE /D _UNICODE /D UNICODE /EHsc /MDd /GS /fp:precise /permissive- /std:c++17 /Fo"X64\DEBUG\\" /Gd /TP -m64   C:\GAMEPIRES\BRAKEOUTGAME\TINYXMLPARSER.CPP
^C:\GAMEPIRES\BRAKEOUTGAME\VIEW\EVENT\CARDANIMATIONEVENT.CPP
/c /Z7 /nologo /W3 /WX- /diagnostics:column /Od /D _DEBUG /D _CONSOLE /D _UNICODE /D UNICODE /EHsc /MDd /GS /fp:precise /permissive- /std:c++17 /Fo"X64\DEBUG\\" /Gd /TP -m64   C:\GAMEPIRES\BRAKEOUTGAME\VIEW\EVENT\CARDANIMATIONEVENT.CPP
^C:\GAMEPIRES\BRAKEOUTGAME\VIEW\EVENT\CHANGESTATEEVENT.CPP
/c /Z7 /nologo /W3 /WX- /diagnostics:column /Od /D _DEBUG /D _CONSOLE /D _UNICODE /D UNICODE /EHsc /MDd /GS /fp:precise /permissive- /std:c++17 /Fo"X64\DEBUG\\" /Gd /TP -m64   C:\GAMEPIRES\BRAKEOUTGAME\VIEW\EVENT\CHANGESTATEEVENT.CPP
^C:\GAMEPIRES\BRAKEOUTGAME\VIEW\EVENT\EVENT.CPP
/c /Z7 /nologo /W3 /WX- /diagnostics:column /Od /D _DEBUG /D _CONSOLE /D _UNICODE /D UNICODE /EHsc /MDd /GS /fp:precise /permissive- /std:c++17 /Fo"X64\DEBUG\\" /Gd /TP -m64   C:\GAMEPIRES\BRAKEOUTGAME\VIEW\EVENT\EVENT.CPP
^C:\GAMEPIRES\BRAKEOUTGAME\VIEW\EVENT\EVENTMANAGER.CPP
/c /Z7 /nologo /W3 /WX- /diagnostics:column /Od /D _DEBUG /D _CONSOLE /D _UNICODE /D UNICODE /EHsc /MDd /GS /fp:precise /permissive- /std:c++17 /Fo"X64\DEBUG\\" /Gd /TP -m64   C:\GAMEPIRES\BRAKEOUTGAME\VIEW\EVENT\EVENTMANAGER.CPP
^C:\GAMEPIRES\BRAKEOUTGAME\VIEW\EVENT\KEYBOARDEVENT.CPP
/c /Z7 /nologo /W3 /WX- /diagnostics:column /Od /D _DEBUG /D _CONSOLE /D _UNICODE /D UNICODE /EHsc /MDd /GS /fp:precise /permissive- /std:c++17 /Fo"X64\DEBUG\\" /Gd /TP -m64   C:\GAMEPIRES\BRAKEOUTGAME\VIEW\EVENT\KEYBOARDEVENT.CPP
^C:\GAMEPIRES\BRAKEOUTGAME\VIEW\EVENT\MOUSEEVENT.CPP
/c /Z7 /nologo /W3 /WX- /diagnostics:column /Od /D _DEBUG /D _CONSOLE /D _UNICODE /D UNICODE /EHsc /MDd /GS /fp:precise /permissive- /std:c++17 /Fo"X64\DEBUG\\" /Gd /TP -m64   C:\GAMEPIRES\BRAKEOUTGAME\VIEW\EVENT\MOUSEEVENT.CPP
^C:\GAMEPIRES\BRAKEOUTGAME\VIEW\EVENT\MOUSEMOTIONEVENT.CPP
/c /Z7 /nologo /W3 /WX- /diagnostics:column /Od /D _DEBUG /D _CONSOLE /D _UNICODE /D UNICODE /EHsc /MDd /GS /fp:precise /permissive- /std:c++17 /Fo"X64\DEBUG\\" /Gd /TP -m64   C:\GAMEPIRES\BRAKEOUTGAME\VIEW\EVENT\MOUSEMOTIONEVENT.CPP
^C:\GAMEPIRES\BRAKEOUTGAME\VIEW\RENDERER.CPP
/c /Z7 /nologo /W3 /WX- /diagnostics:column /Od /D _DEBUG /D _CONSOLE /D _UNICODE /D UNICODE /EHsc /MDd /GS /fp:precise /permissive- /std:c++17 /Fo"X64\DEBUG\\" /Gd /TP -m64   C:\GAMEPIRES\BRAKEOUTGAME\VIEW\RENDERER.CPP
^C:\GAMEPIRES\BRAKEOUTGAME\VIEW\VIEW.CPP
/c /Z7 /nologo /W3 /WX- /diagnostics:column /Od /D _DEBUG /D _CONSOLE /D _UNICODE /D UNICODE /EHsc /MDd /GS /fp:precise /permissive- /std:c++17 /Fo"X64\DEBUG\\" /Gd /TP -m64   C:\GAMEPIRES\BRAKEOUTGAME\VIEW\VIEW.CPP
^C:\GAMEPIRES\BRAKEOUTGAME\VIEW\WINDOW.CPP
/c /Z7 /nologo /W3 /WX- /diagnostics:column /Od /D _DEBUG /D _CONSOLE /D _UNICODE /D UNICODE /EHsc /MDd /GS /fp:precise /permissive- /std:c++17 /Fo"X64\DEBUG\\" /Gd /TP -m64   C:\GAMEPIRES\BRAKEOUTGAME\VIEW\WINDOW.CPP
